{
  "error": "",
  "result": {
    "id": 10555,
    "name": "mobile001",
    "t": false,
    "token": "eyJhbGciOiJIUzI1NiIsInR5cCI6IkpXVCJ9.eyJpZCI6MTA1NTUsIm5hbWUiOiJtb2JpbGUwMDEiLCJleHAiOjE1NTY3MjI3MDd9.TgZX4l59wnZSRqlpDB7EMv0N-dy8oY24ueRrsgS5sd8",
    "w": true
  }
}