{
  "menu": [
    {
      "Id": 3,
      "Title": "真人娱乐",
      "TitleEn": "Citizen",
      "Group": "",
      "Action": "/live",
      "Pid": 0,
      "GameId": 3,
      "Order": 3,
      "Blank": false,
      "Deleted": false,
      "Icon": "icon--chouma"
    },
    {
      "Id": 4,
      "Title": "彩票投注",
      "TitleEn": "LOTTERY",
      "Group": "",
      "Action": "/caipiao",
      "Pid": 0,
      "GameId": 4,
      "Order": 1,
      "Blank": false,
      "Deleted": false,
      "Icon": "icon-lunpan"
    },
    {
      "Id": 5,
      "Title": "棋牌对战",
      "TitleEn": "CHESS",
      "Group": "",
      "Action": "/play/46297061913392",
      "Pid": 0,
      "GameId": 7,
      "Order": 5,
      "Blank": false,
      "Deleted": false,
      "Icon": "icon-qipaishi"
    },
    {
      "Id": 6,
      "Title": "AG捕鱼",
      "TitleEn": "FISHING",
      "Group": "",
      "Action": "/play/tfxC0CZVbkhe",
      "Pid": 0,
      "GameId": 5,
      "Order": 4,
      "Blank": false,
      "Deleted": false,
      "Icon": "icon-fish"
    },
    {
      "Id": 7,
      "Title": "电子游戏",
      "TitleEn": "GAME",
      "Group": "",
      "Action": "/slot",
      "Pid": 0,
      "GameId": 6,
      "Order": 5,
      "Blank": false,
      "Deleted": false,
      "Icon": "icon-94"
    },
    {
      "Id": 8,
      "Title": "CS体育",
      "TitleEn": "CS SPORT",
      "Group": "",
      "Action": "/cssport",
      "Pid": 0,
      "GameId": 6,
      "Order": 5,
      "Blank": false,
      "Deleted": false,
      "Icon": "icon-zuqiu"
    },
    {
      "Id": 10,
      "Title": "个人中心",
      "TitleEn": "Personal center",
      "Group": "",
      "Action": "/home",
      "Pid": 0,
      "GameId": 0,
      "Order": 6,
      "Blank": false,
      "Deleted": false,
      "Icon": "icon-gerenxinxi"
    }
  ],
  "ps": [
    1,
    2,
    3,
    5
  ]
}
